Segundo Período/Arquitetura/Guia 09/752959-Ricardo_Furiati/Exemplo_0904.vcd
$date
	Sun Apr  3 11:59:23 2022
$end
$version
	Icarus Verilog
$end
$timescale
	1s
$end
$scope module Exemplo_0904 $end
$var wire 1 ! clock $end
$upscope $end
$scope module Exemplo_0904 $end
$var wire 1 " p1 $end
$upscope $end
$enddefinitions $end
#0
$dumpvars
1"
0!
$end
#12
1!
#24
0!
#36
1!
0"
#48
0!
#60
1!
#72
0!
1"
#84
1!
#96
0!
#108
1!
0"
#120
0!
#132
1!
#144
0!
1"
#156
1!
#168
0!
#180
1!
0"
#192
0!
#204
1!
#216
0!
1"
#228
1!
#240
0!
#252
1!
0"
#264
0!
#276
1!
#288
0!
1"
#300
1!
#312
0!
#324
1!
0"
#336
0!
#348
1!
#360
0!
1"
#372
1!
#384
0!
#396
1!
0"
#408
0!
#420
1!
#432
0!
1"
#444
1!
#456
0!
#468
1!
0"
